…
# Count the number of providers by ZIP code
provider_by_zip <- data %>%
  group_by(zip_code) %>%
  summarise(provider_count = n())

# View the distribution
print(provider_by_state)
```

    ## # A tibble: 53 × 2
    ##    state_cd provider_count
    ##    <chr>             <int>
    ##  1 AK                    7
    ##  2 AL                   97
    ##  3 AR                   78
    ##  4 AZ                  208
    ##  5 CA                 2806
    ##  6 CO                   45
    ##  7 CT                   53
    ##  8 DC                   78
    ##  9 DE                    5
    ## 10 FL                  524
    ## # ℹ 43 more rows

``` r
print(provider_by_zip)
```

    ## # A tibble: 2,574 × 2
    ##    zip_code provider_count
    ##       <int>          <int>
    ##  1      603              3
    ##  2      612             15
    ##  3      617              1
    ##  4      622              3
    ##  5      623             12
    ##  6      627              1
    ##  7      641              3
    ##  8      646              2
    ##  9      652              1
    ## 10      656              2
    ## # ℹ 2,564 more rows
…
